{
  "key": "bitbucket-type-cloud",
  "name": "Bitbucket Type Cloud",
  "description": "Shows a text cloud of the file types in your repository.",
  "baseUrl": "https://type-cloud.firebaseapp.com",
  "modules": {
    "repoPage": [{
      "key": "cloud",
      "name": {
        "value": "File types"
      },
      "url": "/cloud.html?repo_uuid={repo_uuid}",
      "location": "org.bitbucket.repository.navigation",
      "params": {
        "auiIcon": "aui-iconfont-pages"
      }
    }],
    "oauthConsumer": {
      "clientId": "yUd6BMxjnw8NZdZmRC"
    }
  },
  "scopes": ["repository"],
  "contexts": ["personal"]
}